<mxfile host="Electron" modified="2024-03-16T16:24:06.793Z" agent="Mozilla/5.0 (Macintosh; Intel Mac OS X 10_15_7) AppleWebKit/537.36 (KHTML, like Gecko) draw.io/24.0.4 Chrome/120.0.6099.109 Electron/28.1.0 Safari/537.36" etag="y5zBlR_tqhliKyOpejnE" version="24.0.4" type="device">
  <diagram name="1 oldal" id="8TzYUME16ssbtEZODrjA">
    <mxGraphModel dx="956" dy="530" grid="1" gridSize="10" guides="1" tooltips="1" connect="1" arrows="1" fold="1" page="1" pageScale="1.5" pageWidth="450" pageHeight="270" math="0" shadow="0">
      <root>
        <mxCell id="0" />
        <mxCell id="1" parent="0" />
        <mxCell id="rairT7wGDwIPwnbJqWDx-1" value="NEW" style="rounded=0;whiteSpace=wrap;html=1;" parent="1" vertex="1">
          <mxGeometry x="40" y="80" width="80" height="40" as="geometry" />
        </mxCell>
        <mxCell id="miWRe-MEfSFNerVqzEQu-3" value="RUN" style="rounded=0;whiteSpace=wrap;html=1;" parent="1" vertex="1">
          <mxGeometry x="280" y="80" width="80" height="40" as="geometry" />
        </mxCell>
        <mxCell id="miWRe-MEfSFNerVqzEQu-4" value="PAUSE" style="rounded=0;whiteSpace=wrap;html=1;" parent="1" vertex="1">
          <mxGeometry x="280" y="200" width="80" height="40" as="geometry" />
        </mxCell>
        <mxCell id="miWRe-MEfSFNerVqzEQu-5" value="SUCCESS" style="rounded=0;whiteSpace=wrap;html=1;" parent="1" vertex="1">
          <mxGeometry x="520" y="80" width="80" height="40" as="geometry" />
        </mxCell>
        <mxCell id="miWRe-MEfSFNerVqzEQu-6" value="ERROR" style="rounded=0;whiteSpace=wrap;html=1;" parent="1" vertex="1">
          <mxGeometry x="520" y="200" width="80" height="40" as="geometry" />
        </mxCell>
        <mxCell id="miWRe-MEfSFNerVqzEQu-7" value="BREAK" style="rounded=0;whiteSpace=wrap;html=1;" parent="1" vertex="1">
          <mxGeometry x="520" y="320" width="80" height="40" as="geometry" />
        </mxCell>
        <mxCell id="miWRe-MEfSFNerVqzEQu-8" value="" style="endArrow=classic;html=1;rounded=0;exitX=1;exitY=0.5;exitDx=0;exitDy=0;entryX=0;entryY=0.5;entryDx=0;entryDy=0;jumpSize=21;strokeWidth=3;" parent="1" source="miWRe-MEfSFNerVqzEQu-3" target="miWRe-MEfSFNerVqzEQu-5" edge="1">
          <mxGeometry width="50" height="50" relative="1" as="geometry">
            <mxPoint x="390" y="430" as="sourcePoint" />
            <mxPoint x="440" y="380" as="targetPoint" />
          </mxGeometry>
        </mxCell>
        <mxCell id="miWRe-MEfSFNerVqzEQu-9" value="" style="endArrow=classic;html=1;rounded=0;entryX=0;entryY=0.5;entryDx=0;entryDy=0;strokeWidth=3;" parent="1" target="miWRe-MEfSFNerVqzEQu-6" edge="1">
          <mxGeometry width="50" height="50" relative="1" as="geometry">
            <mxPoint x="360" y="100" as="sourcePoint" />
            <mxPoint x="440" y="380" as="targetPoint" />
          </mxGeometry>
        </mxCell>
        <mxCell id="miWRe-MEfSFNerVqzEQu-10" value="" style="endArrow=classic;html=1;rounded=0;exitX=1;exitY=0.5;exitDx=0;exitDy=0;entryX=0;entryY=0.5;entryDx=0;entryDy=0;fillColor=#0000FF;strokeColor=#0000FF;" parent="1" source="rairT7wGDwIPwnbJqWDx-1" target="miWRe-MEfSFNerVqzEQu-3" edge="1">
          <mxGeometry relative="1" as="geometry">
            <mxPoint x="360" y="410" as="sourcePoint" />
            <mxPoint x="460" y="410" as="targetPoint" />
            <Array as="points" />
            <mxPoint as="offset" />
          </mxGeometry>
        </mxCell>
        <mxCell id="miWRe-MEfSFNerVqzEQu-13" value="" style="endArrow=classic;html=1;rounded=0;exitX=0.25;exitY=1;exitDx=0;exitDy=0;entryX=0.25;entryY=0;entryDx=0;entryDy=0;strokeColor=#0000FF;" parent="1" source="miWRe-MEfSFNerVqzEQu-3" target="miWRe-MEfSFNerVqzEQu-4" edge="1">
          <mxGeometry relative="1" as="geometry">
            <mxPoint x="340" y="250" as="sourcePoint" />
            <mxPoint x="440" y="250" as="targetPoint" />
          </mxGeometry>
        </mxCell>
        <mxCell id="miWRe-MEfSFNerVqzEQu-20" value="&amp;nbsp;run&amp;nbsp;" style="text;html=1;align=center;verticalAlign=middle;resizable=0;points=[];autosize=1;strokeColor=none;fillColor=none;fontColor=#0000FF;labelBackgroundColor=default;" parent="1" vertex="1">
          <mxGeometry x="171" y="84" width="50" height="30" as="geometry" />
        </mxCell>
        <mxCell id="miWRe-MEfSFNerVqzEQu-21" value="" style="endArrow=classic;html=1;rounded=0;exitX=0.75;exitY=0;exitDx=0;exitDy=0;entryX=0.75;entryY=1;entryDx=0;entryDy=0;strokeColor=#0000FF;" parent="1" source="miWRe-MEfSFNerVqzEQu-4" target="miWRe-MEfSFNerVqzEQu-3" edge="1">
          <mxGeometry relative="1" as="geometry">
            <mxPoint x="372" y="120" as="sourcePoint" />
            <mxPoint x="372" y="200" as="targetPoint" />
          </mxGeometry>
        </mxCell>
        <mxCell id="miWRe-MEfSFNerVqzEQu-22" value="" style="endArrow=classic;html=1;rounded=0;exitX=1;exitY=0.5;exitDx=0;exitDy=0;entryX=0;entryY=0.5;entryDx=0;entryDy=0;strokeColor=#0000FF;" parent="1" source="miWRe-MEfSFNerVqzEQu-3" target="miWRe-MEfSFNerVqzEQu-7" edge="1">
          <mxGeometry relative="1" as="geometry">
            <mxPoint x="310" y="130" as="sourcePoint" />
            <mxPoint x="310" y="210" as="targetPoint" />
          </mxGeometry>
        </mxCell>
        <mxCell id="miWRe-MEfSFNerVqzEQu-23" value="" style="endArrow=classic;html=1;rounded=0;exitX=1;exitY=0.5;exitDx=0;exitDy=0;strokeColor=#0000FF;" parent="1" source="miWRe-MEfSFNerVqzEQu-4" edge="1">
          <mxGeometry relative="1" as="geometry">
            <mxPoint x="320" y="140" as="sourcePoint" />
            <mxPoint x="520" y="340" as="targetPoint" />
          </mxGeometry>
        </mxCell>
        <mxCell id="miWRe-MEfSFNerVqzEQu-24" value="" style="endArrow=classic;html=1;rounded=0;exitX=1;exitY=0.5;exitDx=0;exitDy=0;strokeColor=#0000FF;entryX=0.5;entryY=0;entryDx=0;entryDy=0;" parent="1" source="miWRe-MEfSFNerVqzEQu-5" target="miWRe-MEfSFNerVqzEQu-3" edge="1">
          <mxGeometry relative="1" as="geometry">
            <mxPoint x="653" y="150" as="sourcePoint" />
            <mxPoint x="320" y="40" as="targetPoint" />
            <Array as="points">
              <mxPoint x="640" y="100" />
              <mxPoint x="640" y="40" />
              <mxPoint x="320" y="40" />
            </Array>
          </mxGeometry>
        </mxCell>
        <mxCell id="miWRe-MEfSFNerVqzEQu-26" value="" style="endArrow=none;html=1;rounded=0;exitX=1;exitY=0.5;exitDx=0;exitDy=0;fontColor=#CC0000;strokeColor=#0000FF;" parent="1" source="miWRe-MEfSFNerVqzEQu-6" edge="1">
          <mxGeometry width="50" height="50" relative="1" as="geometry">
            <mxPoint x="670" y="220" as="sourcePoint" />
            <mxPoint x="640" y="100" as="targetPoint" />
            <Array as="points">
              <mxPoint x="640" y="220" />
            </Array>
          </mxGeometry>
        </mxCell>
        <mxCell id="miWRe-MEfSFNerVqzEQu-27" value="" style="endArrow=none;html=1;rounded=0;exitX=1;exitY=0.5;exitDx=0;exitDy=0;fontColor=#CC0000;strokeColor=#0000FF;" parent="1" source="miWRe-MEfSFNerVqzEQu-7" edge="1">
          <mxGeometry width="50" height="50" relative="1" as="geometry">
            <mxPoint x="609" y="338" as="sourcePoint" />
            <mxPoint x="640" y="220" as="targetPoint" />
            <Array as="points">
              <mxPoint x="640" y="340" />
            </Array>
          </mxGeometry>
        </mxCell>
        <mxCell id="miWRe-MEfSFNerVqzEQu-28" value="&amp;nbsp;run&amp;nbsp;" style="text;html=1;align=center;verticalAlign=middle;resizable=0;points=[];autosize=1;strokeColor=none;fillColor=none;fontColor=#0000FF;labelBackgroundColor=default;" parent="1" vertex="1">
          <mxGeometry x="455" y="24" width="50" height="30" as="geometry" />
        </mxCell>
        <mxCell id="miWRe-MEfSFNerVqzEQu-29" value="pause" style="text;html=1;align=center;verticalAlign=middle;resizable=0;points=[];autosize=1;strokeColor=none;fillColor=none;fontColor=#0000FF;labelBackgroundColor=default;" parent="1" vertex="1">
          <mxGeometry x="270" y="122" width="60" height="30" as="geometry" />
        </mxCell>
        <mxCell id="miWRe-MEfSFNerVqzEQu-30" value="continue" style="text;html=1;align=center;verticalAlign=middle;resizable=0;points=[];autosize=1;strokeColor=none;fillColor=none;fontColor=#0000FF;labelBackgroundColor=default;" parent="1" vertex="1">
          <mxGeometry x="305" y="166" width="70" height="30" as="geometry" />
        </mxCell>
        <mxCell id="miWRe-MEfSFNerVqzEQu-31" value="break" style="text;html=1;align=center;verticalAlign=middle;resizable=0;points=[];autosize=1;strokeColor=none;fillColor=none;fontColor=#0000FF;labelBackgroundColor=default;spacingTop=0;" parent="1" vertex="1">
          <mxGeometry x="411" y="199" width="50" height="30" as="geometry" />
        </mxCell>
        <mxCell id="miWRe-MEfSFNerVqzEQu-32" value="break" style="text;html=1;align=center;verticalAlign=middle;resizable=0;points=[];autosize=1;strokeColor=none;fillColor=none;fontColor=#0000FF;labelBackgroundColor=default;spacingTop=0;" parent="1" vertex="1">
          <mxGeometry x="404" y="257" width="50" height="30" as="geometry" />
        </mxCell>
      </root>
    </mxGraphModel>
  </diagram>
</mxfile>
